VHDL_SystemVerilog/sim/DUMPs/dump_i.vcd
$date
	Sun Jul 14 23:41:49 2024
$end

$version
	Synopsys VCS version U-2023.03-SP2_Full64
$end

$timescale
	1ps
$end

$comment Csum: 1 f328a83d49c195a8 $end


$scope module uvm_pkg $end
$var time 64 ! setting_offset $end
$var reg 32 " uvm_global_random_seed [31:0] $end
$var reg 32 # UVM_UNBOUNDED_CONNECTIONS [31:0] $end
$var reg 32 $ setting_verbosity [31:0] $end
$var reg 1 % is_verdi_set_verbosity_called $end
$var reg 32 & m_uvm_core_state [31:0] $end
$upscope $end


$scope module $unit $end
$upscope $end


$scope module top_hdl $end
$var reg 1 ' tb_clk $end

$scope begin unnamed$$_vcs_2 $end
$upscope $end


$scope begin unnamed$$_vcs_0 $end
$upscope $end


$scope begin unnamed$$_vcs_1 $end
$upscope $end


$scope module intf $end
$var wire 1 ( tb_clk $end
$var reg 1 ) reset $end
$var reg 32 * tb_WB_Data [31:0] $end
$var reg 32 + instruction_queue [31:0] $end
$var reg 1 , cambio $end
$upscope $end


$scope module riscV $end
$var reg 1 - reset $end
$var reg 7 . opcode [6:0] $end
$var reg 1 / clk $end
$var reg 32 0 WB_Data [31:0] $end
$var reg 1 1 ALUSrc $end
$var reg 1 2 MemtoReg $end
$var reg 1 3 RegtoMem $end
$var reg 1 4 RegWrite $end
$var reg 1 5 MemRead $end
$var reg 1 6 MemWrite $end
$var reg 1 7 Con_Jalr $end
$var reg 1 8 Con_beq $end
$var reg 1 9 Con_bnq $end
$var reg 1 : Con_bgt $end
$var reg 1 ; Con_blt $end
$var reg 1 < Con_Jal $end
$var reg 1 = Branch $end
$var reg 1 > Mem $end
$var reg 1 ? OpI $end
$var reg 1 @ AUIPC $end
$var reg 1 A LUI $end
$var reg 2 B ALUop [1:0] $end
$var reg 7 C Funct7 [6:0] $end
$var reg 3 D Funct3 [2:0] $end
$var reg 4 E Operation [3:0] $end

$scope module c $end
$var reg 1 F ALUSrc $end
$var reg 1 G MemtoReg $end
$var reg 1 H RegtoMem $end
$var reg 1 I RegWrite $end
$var reg 1 J MemRead $end
$var reg 1 K MemWrite $end
$var reg 2 L ALUOp [1:0] $end
$var reg 1 M Mem $end
$var reg 1 N OpI $end
$var reg 1 O Con_LUI $end
$var reg 7 P Opcode [6:0] $end
$var reg 1 Q Branch $end
$var reg 1 R Con_Jalr $end
$var reg 1 S Con_Jal $end
$var reg 1 T Con_AUIPC $end
$var reg 7 U R_TYPE [6:0] $end
$var reg 7 V LW [6:0] $end
$var reg 7 W SW [6:0] $end
$var reg 7 X RTypeI [6:0] $end
$var reg 7 Y BR [6:0] $end
$var reg 7 Z JALR [6:0] $end
$var reg 7 [ JAL [6:0] $end
$var reg 7 \ AUIPC [6:0] $end
$var reg 7 ] LUI [6:0] $end
$upscope $end


$scope module ac $end
$var reg 2 ^ ALUOp [1:0] $end
$var reg 7 _ Funct7 [6:0] $end
$var reg 3 ` Funct3 [2:0] $end
$var wire 1 a Branch $end
$var wire 1 b Mem $end
$var wire 1 c OpI $end
$var wire 1 d AUIPC $end
$var reg 4 e Operation [3:0] $end
$var reg 1 f Con_beq $end
$var reg 1 g Con_bnq $end
$var reg 1 h Con_blt $end
$var reg 1 i Con_bgt $end
$upscope $end


$scope module dp $end
$var reg 9 j PC [8:0] $end
$var reg 1 k clk $end
$var reg 1 l reset $end
$var reg 1 m RegWrite $end
$var reg 1 n MemtoReg $end
$var reg 1 o RegtoMem $end
$var reg 1 p ALUsrc $end
$var reg 1 q MemWrite $end
$var reg 1 r MemRead $end
$var reg 1 s Con_beq $end
$var reg 1 t Con_bnq $end
$var reg 1 u Con_bgt $end
$var reg 1 v Con_blt $end
$var reg 1 w Con_Jalr $end
$var reg 1 x Jal $end
$var reg 1 y AUIPC $end
$var reg 1 z LUI $end
$var reg 4 { ALU_CC [3:0] $end
$var reg 7 | opcode [6:0] $end
$var reg 7 } Funct7 [6:0] $end
$var reg 3 ~ Funct3 [2:0] $end
$var reg 32 "! ALU_Result [31:0] $end
$var reg 9 "" PCPlus4 [8:0] $end
$var reg 9 "# PCValue [8:0] $end
$var reg 9 "$ BranchPC [8:0] $end
$var reg 32 "% Instr [31:0] $end
$var reg 32 "& PCPlusImm [31:0] $end
$var reg 32 "' PCJalr [31:0] $end
$var reg 32 "( LD [31:0] $end
$var reg 32 ") ST [31:0] $end
$var reg 32 "* Store_data [31:0] $end
$var reg 32 "+ Result [31:0] $end
$var reg 32 ", Reg1 [31:0] $end
$var reg 32 "- Reg2 [31:0] $end
$var reg 32 ". ReadData [31:0] $end
$var reg 32 "/ SrcB [31:0] $end
$var reg 32 "0 ALUResult [31:0] $end
$var reg 32 "1 ExtImm [31:0] $end
$var reg 32 "2 PC_unsign_extend [31:0] $end
$var reg 32 "3 Read_Alu_Result [31:0] $end
$var reg 32 "4 Jal_test [31:0] $end
$var reg 32 "5 aui_data [31:0] $end
$var reg 32 "6 lui_data [31:0] $end
$var reg 2 "7 PCSel [1:0] $end
$var reg 1 "8 zero $end
$var reg 1 "9 Con_BLT $end
$var reg 1 ": Con_BGT $end
$var reg 1 "; Jalr $end
$var reg 1 "< Branch $end

$scope module pcadd1 $end
$var reg 9 "= a [8:0] $end
$var reg 9 "> b [8:0] $end
$var reg 9 "? y [8:0] $end
$upscope $end


$scope module pcadd2 $end
$var reg 32 "@ a [31:0] $end
$var reg 32 "A b [31:0] $end
$var reg 32 "B y [31:0] $end
$upscope $end


$scope module pcadd3 $end
$var reg 32 "C a [31:0] $end
$var reg 32 "D b [31:0] $end
$var reg 32 "E y [31:0] $end
$upscope $end


$scope module next_pc1 $end
$var reg 9 "F d0 [8:0] $end
$var reg 9 "G d1 [8:0] $end
$var reg 1 "H s $end
$var reg 9 "I y [8:0] $end
$upscope $end


$scope module next_pc2 $end
$var reg 9 "J d0 [8:0] $end
$var reg 9 "K d1 [8:0] $end
$var reg 1 "L s $end
$var reg 9 "M y [8:0] $end
$upscope $end


$scope module pcreg $end
$var reg 1 "N clk $end
$var reg 1 "O reset $end
$var reg 9 "P d [8:0] $end
$var reg 9 "Q q [8:0] $end
$upscope $end


$scope module instr_mem $end
$var reg 9 "R ra [8:0] $end
$var reg 32 "S rd [31:0] $end
$upscope $end


$scope module store_data_ex $end
$var reg 32 "T inst [31:0] $end
$var reg 32 "U data [31:0] $end
$var reg 32 "V y [31:0] $end
$var reg 32 "W Imm_out [31:0] $end
$var reg 16 "X s_bit [15:0] $end
$var reg 8 "Y e_bit [7:0] $end
$upscope $end


$scope module resmux_store $end
$var reg 32 "Z d0 [31:0] $end
$var reg 32 "[ d1 [31:0] $end
$var reg 1 "\ s $end
$var reg 32 "] y [31:0] $end
$upscope $end


$scope module rf $end
$var wire 1 "^ clk $end
$var wire 1 "_ rst $end
$var wire 1 "` rg_wrt_en $end
$var wire 5 "a rg_wrt_dest [4:0] $end
$var wire 5 "b rg_rd_addr1 [4:0] $end
$var wire 5 "c rg_rd_addr2 [4:0] $end
$var wire 32 "d rg_wrt_data [31:0] $end
$var reg 32 "e rg_rd_data1 [31:0] $end
$var reg 32 "f rg_rd_data2 [31:0] $end
$var integer 32 "g i $end
$upscope $end


$scope module resmux $end
$var reg 32 "h d0 [31:0] $end
$var reg 32 "i d1 [31:0] $end
$var reg 1 "j s $end
$var reg 32 "k y [31:0] $end
$upscope $end


$scope module resmux_jal $end
$var reg 32 "l d0 [31:0] $end
$var reg 32 "m d1 [31:0] $end
$var reg 1 "n s $end
$var reg 32 "o y [31:0] $end
$upscope $end


$scope module resmux_auipc $end
$var reg 32 "p d0 [31:0] $end
$var reg 32 "q d1 [31:0] $end
$var reg 1 "r s $end
$var reg 32 "s y [31:0] $end
$upscope $end


$scope module resmux_lui $end
$var reg 32 "t d0 [31:0] $end
$var reg 32 "u d1 [31:0] $end
$var reg 1 "v s $end
$var reg 32 "w y [31:0] $end
$upscope $end


$scope module Ext_Imm $end
$var reg 32 "x inst_code [31:0] $end
$var reg 32 "y Imm_out [31:0] $end
$var reg 5 "z srai [4:0] $end
$upscope $end


$scope module srcbmux $end
$var reg 32 "{ d0 [31:0] $end
$var reg 32 "| d1 [31:0] $end
$var reg 1 "} s $end
$var reg 32 "~ y [31:0] $end
$upscope $end


$scope module alu_module $end
$var reg 32 #! SrcA [31:0] $end
$var reg 32 #" SrcB [31:0] $end
$var reg 4 ## Operation [3:0] $end
$var reg 32 #$ ALUResult [31:0] $end
$var reg 1 #% Con_BLT $end
$var reg 1 #& Con_BGT $end
$var reg 1 #' zero $end
$var integer 32 #( i $end
$upscope $end


$scope module load_data_ex $end
$var reg 32 #) inst [31:0] $end
$var reg 32 #* data [31:0] $end
$var reg 32 #+ y [31:0] $end
$var reg 32 #, Imm_out [31:0] $end
$var reg 16 #- s_bit [15:0] $end
$var reg 8 #. e_bit [7:0] $end
$upscope $end


$scope module data_mem $end
$var reg 1 #/ clk $end
$var reg 1 #0 rst $end
$var reg 1 #1 MemRead $end
$var reg 1 #2 MemWrite $end
$var reg 32 #3 a [31:0] $end
$var reg 32 #4 wd [31:0] $end
$var reg 32 #5 rd [31:0] $end

$scope begin unnamed$$_0 $end
$upscope $end

$upscope $end

$upscope $end

$upscope $end

$upscope $end


$scope module top_hvl $end

$scope begin unnamed$$_vcs_0 $end
$upscope $end

$upscope $end


$scope module whitebox $end

$scope task _$$txp______assert_assert_check_R_type_controller $end
$upscope $end


$scope task _$$txp______assert_assert_check_I_type_controller $end
$upscope $end


$scope task _$$txp______assert_assert_check_load_controller $end
$upscope $end


$scope task _$$txp______assert_assert_check_store_controller $end
$upscope $end


$scope task _$$txp______assert_assert_check_Lui_controller $end
$upscope $end


$scope task _$$txp______assert_assert_check_registers_after_reset $end
$upscope $end


$scope task _$$txp_fail_action_assert_check_PC_plus_4 $end
$upscope $end


$scope task _$$txp_fail_action_assert_check_R_type_controller $end
$upscope $end


$scope task _$$txp_fail_action_assert_check_I_type_controller $end
$upscope $end


$scope task _$$txp_fail_action_assert_check_load_controller $end
$upscope $end


$scope task _$$txp_fail_action_assert_check_store_controller $end
$upscope $end


$scope task _$$txp_fail_action_assert_check_Lui_controller $end
$upscope $end


$scope task _$$txp_fail_action_assert_check_registers_after_reset $end
$upscope $end

$upscope $end

$enddefinitions $end

#0
$dumpvars
0%
bxxxxxxxxxxxxxxxxxxxxxxxxxxxxxxxxxxxxxxxxxxxxxxxxxxxxxxxxxxxxxxxx !
b11111111111111111111111111111111 #
b00000000000000000000000000000101 &
b00000000000000000000000000000000 $
b01000001111110011101110101010010 "
0'
bxxxxxxxxxxxxxxxxxxxxxxxxxxxxxxxx +
bxxxxxxxxxxxxxxxxxxxxxxxxxxxxxxxx *
x1
xp
x@
x=
xT
0":
0"9
x<
x7
x8
x:
x;
x9
xx
x";
xA
x>
x5
x6
x2
x?
x4
x3
xd
xa
xf
xi
xh
xg
xb
xc
0#&
0#%
0#'
xQ
xS
xR
x#1
x#2
xy
x"<
xw
xs
xu
xv
xt
xz
xr
xq
xn
xm
xo
xl
x"H
x"L
x"O
x"j
x"r
x"n
x"v
x"_
x"`
x#0
x"\
x"}
0"8
bxx L
b00000000000000000000000000000000 "0
bxxxx {
bxxxxxxxxxxxxxxxxxxxxxxxxxxxxxxxx "!
bxx B
b1100011 Y
bxxxxxxxxx "$
b00000000000000000000000000000000 "1
bxxx D
bxxxxxxx C
b00000000000000000000000000000000 "y
bxxxxxxxxxxxxxxxxxxxxxxxxxxxxxxxx "%
b1101111 [
b1100111 Z
bxxxxxxxxxxxxxxxxxxxxxxxxxxxxxxxx "4
bxxxxxxxxxxxxxxxxxxxxxxxxxxxxxxxx "(
b0000011 V
bxxxxxxx P
bxxxx E
bxxxxxxxxx j
bxxxxxxxxxxxxxxxxxxxxxxxxxxxxxxxx "'
bxxxxxxxxx ""
bxxxxxxxxxxxxxxxxxxxxxxxxxxxxxxxx "&
bxx "7
bxxxxxxxxx "#
b00000000000000000000000xxxxxxxxx "2
b0010011 X
b0110011 U
bxxxxxxxxxxxxxxxxxxxxxxxxxxxxxxxx ".
bxxxxxxxxxxxxxxxxxxxxxxxxxxxxxxxx "3
bxxxxxxxxxxxxxxxxxxxxxxxxxxxxxxxx ",
bxxxxxxxxxxxxxxxxxxxxxxxxxxxxxxxx "-
bxxxxxxxxxxxxxxxxxxxxxxxxxxxxxxxx "+
bxxxxxxxxxxxxxxxxxxxxxxxxxxxxxxxx ")
b0100011 W
bxxxxxxxxxxxxxxxxxxxxxxxxxxxxxxxx #!
bxxxxxxxxxxxxxxxxxxxxxxxxxxxxxxxx "/
bxxxxxxxxxxxxxxxxxxxxxxxxxxxxxxxx "*
bxxxxxxxxxxxxxxxxxxxxxxxxxxxxxxxx 0
b00000000000000000000000xxxxxxxxx "@
bxx ^
bxxx `
bxxxxxxx _
bxxxx e
b00000000000000000000000000000000 #$
bxxxxxxxxxxxxxxxxxxxxxxxxxxxxxxxx #"
bxxxxxxxxxxxxxxxxxxxxxxxxxxxxxxxx #(
bxxxxxxxxxxxxxxxxxxxxxxxxxxxxxxxx "5
b00000000000000000000000000000000 "A
b0010111 \
b0110111 ]
bxxxxxxxxx "P
bxxxxxxxxxxxxxxxxxxxxxxxxxxxxxxxx "Z
bxxxxxxxxxxxxxxxxxxxxxxxxxxxxxxxx "[
b00000000000000000000000000000000 #3
bxxx ~
bxxxxxxx }
bxxxx ##
bxxxxxxx |
bxxxxxxxxxxxxxxxxxxxxxxxxxxxxxxxx "x
bxxxxxxxxxxxxxxxxxxxxxxxxxxxxxxxx "S
bxxxxxxxxxxxxxxxxxxxxxxxxxxxxxxxx "6
bxxxxxxxxx "F
bxxxxxxxxx "G
bxxxxxxxxx "I
bxxxxxxxxx "J
bxxxxxxxxx "K
bxxxxxxxxx "M
bxxxxxxx .
bxxxxxxxxx "=
b000000100 ">
bxxxxxxxxx "?
bxxxxxxxxxxxxxxxxxxxxxxxxxxxxxxxx "B
b00000000000000000000000000000000 "C
bxxxxxxxxxxxxxxxxxxxxxxxxxxxxxxxx "D
bxxxxxxxxxxxxxxxxxxxxxxxxxxxxxxxx "E
bxxxxxxxxx "Q
bxxxxxxxxx "R
bxxxxxxxxxxxxxxxxxxxxxxxxxxxxxxxx #5
b00000000000000000000000000000000 "h
bxxxxxxxxxxxxxxxxxxxxxxxxxxxxxxxx "i
bxxxxxxxxxxxxxxxxxxxxxxxxxxxxxxxx "k
bxxxxxxxxxxxxxxxxxxxxxxxxxxxxxxxx "p
bxxxxxxxxxxxxxxxxxxxxxxxxxxxxxxxx "q
bxxxxxxxxxxxxxxxxxxxxxxxxxxxxxxxx "s
bxxxxxxxxxxxxxxxxxxxxxxxxxxxxxxxx "l
b00000000000000000000000xxxxxxxxx "m
bxxxxxxxxxxxxxxxxxxxxxxxxxxxxxxxx "o
bxxxxxxxxxxxxxxxxxxxxxxxxxxxxxxxx "t
b00000000000000000000000000000000 "u
bxxxxxxxxxxxxxxxxxxxxxxxxxxxxxxxx "w
bxxxxxxxxxxxxxxxxxxxxxxxxxxxxxxxx "g
bxxxxxxxxxxxxxxxxxxxxxxxxxxxxxxxx "e
bxxxxxxxxxxxxxxxxxxxxxxxxxxxxxxxx "f
bxxxxxxxxxxxxxxxxxxxxxxxxxxxxxxxx "d
bxxxxx "a
bxxxxx "z
bxxxxxxxxxxxxxxxxxxxxxxxxxxxxxxxx "{
b00000000000000000000000000000000 "|
bxxxxxxxxxxxxxxxxxxxxxxxxxxxxxxxx "~
bxxxxx "c
bxxxxx "b
bxxxxxxxxxxxxxxxxxxxxxxxxxxxxxxxx #4
bxxxxxxxxxxxxxxxxxxxxxxxxxxxxxxxx "]
bxxxxxxxxxxxxxxxxxxxxxxxxxxxxxxxx "W
bxxxxxxxxxxxxxxxxxxxxxxxxxxxxxxxx "U
bxxxxxxxx "Y
bxxxxxxxxxxxxxxxxxxxxxxxxxxxxxxxx "T
bxxxxxxxxxxxxxxxx "X
bxxxxxxxxxxxxxxxxxxxxxxxxxxxxxxxx "V
bxxxxxxxxxxxxxxxxxxxxxxxxxxxxxxxx #,
bxxxxxxxxxxxxxxxxxxxxxxxxxxxxxxxx #*
bxxxxxxxx #.
bxxxxxxxxxxxxxxxxxxxxxxxxxxxxxxxx #)
bxxxxxxxxxxxxxxxx #-
bxxxxxxxxxxxxxxxxxxxxxxxxxxxxxxxx #+
0/
0k
0"N
0#/
0(
x-
1,
x)
xI
xF
xN
xG
xM
xJ
xH
xK
xO
0"^
$end
#10000
1'
1(
1/
1k
1"N
1#/
1"^
1)
1-
1l
1"_
1#0
1"O
b000000000 "Q
b000000000 j
b00000000000000000000000000000000 "2
b00000000000000000000000000000000 "@
b00000000000000000000000000000000 "B
b00000000000000000000000000000000 "&
b000000000 "G
b00000000000000000000000000000000 "q
b000000000 "=
b000000100 "?
b000000100 ""
b000000100 "F
b00000000000000000000000000000100 "m
b000000000 "R
b000000x00 "I
b000000x00 "$
b000000x00 "J
#20000
0'
0(
0/
0k
0"N
0#/
0"^
0,
b00000000000000000000000000100000 "g
#30000
1'
1(
1/
1k
1"N
1#/
1"^
#40000
0'
0(
0/
0k
0"N
0#/
0"^
1,
#45000
0)
0-
0l
0"_
0#0
0"O
b00000000000000000000000000000000 "S
b00000000000000000000000000000000 "%
b00000 "c
b00000 "b
b00000000000000000000000000000000 "x
b00000 "z
b00000 "a
b000 ~
b000 D
b000 `
b0000000 }
b0000000 C
b0000000 _
b0000000 |
b0000000 .
b0000000 P
b00000000000000000000000000000000 "f
b00000000000000000000000000000000 "-
b00000000000000000000000000000000 "U
b00000000 "Y
b0000000000000000 "X
b00000000000000000000000000000000 "{
b00000000000000000000000000000000 "Z
b00000000000000000000000000000000 "e
b00000000000000000000000000000000 ",
b00000000000000000000000000000000 #!
b00000000000000000000000000000000 "D
b00000000000000000000000000000000 "E
b00000000000000000000000000000000 "'
b000000000 "K
b0xx0 e
0i
0:
0u
0h
0;
0v
0g
09
0t
0O
0A
0z
0"v
0T
0@
0d
0y
0"r
0N
0?
0c
bx0 L
bx0 B
bx0 ^
b00 L
b00 B
b00 ^
0H
03
0o
0"\
0J
05
0r
0#1
0G
02
0n
0"j
0K
06
0q
0#2
0M
0>
0b
0I
04
0m
0"`
0F
01
0p
0Q
0=
0a
0R
07
0w
0";
0"L
0S
0<
0x
0"n
b00000000000000000000000000000000 #)
b00000000000000000000000000000000 "T
b00000000000000000000000000000000 "W
b00000000000000000000000000000000 "~
b00000000000000000000000000000000 "/
b00000000000000000000000000000000 #"
b000000x00 "M
b000000x00 "#
b000000x00 "P
b0xx0 E
b0xx0 {
b0xx0 ##
b0010 e
b00000000000000000000000000000000 "]
b00000000000000000000000000000000 "*
b00000000000000000000000000000000 #4
b00000000000000000000000000000000 "k
b00000000000000000000000000000000 "3
b00000000000000000000000000000000 "l
0f
08
0s
0"}
0"<
0"H
b00000000000000000000000000000000 #,
b0010 E
b0010 {
b0010 ##
b00000000000000000000000000000000 "o
b00000000000000000000000000000000 "4
b00000000000000000000000000000000 "p
b000000100 "I
b000000100 "$
b000000100 "J
b00000000000000000000000000000000 "s
b00000000000000000000000000000000 "5
b00000000000000000000000000000000 "t
b000000100 "M
b000000100 "#
b000000100 "P
b00000000000000000000000000000000 "w
b00000000000000000000000000000000 "+
b00000000000000000000000000000000 "d
b00000000000000000000000000000000 "!
b00000000000000000000000000000000 0
b00000000000000000000000000000000 *
#50000
1'
1(
1/
1k
1"N
1#/
1"^
b000000100 "Q
b000000100 j
b00000000000000000000000000000100 "2
b00000000000000000000000000000100 "@
b00000000000000000000000000000100 "B
b00000000000000000000000000000100 "&
b000000100 "G
b00000000000000000000000000000100 "q
b000000100 "=
b000001000 "?
b000001000 ""
b000001000 "F
b00000000000000000000000000001000 "m
b000000100 "R
b00000000000000000111000000110011 "S
b00000000000000000111000000110011 "%
b00000000000000000111000000110011 "x
b111 ~
b111 D
b111 `
b0110011 |
b0110011 .
b0110011 P
b000001000 "I
b000001000 "$
b000001000 "J
b10 L
b10 B
b10 ^
b00000000000000000111000000110011 #)
b00000000000000000111000000110011 "T
b000001000 "M
b000001000 "#
b000001000 "P
b0000 e
1I
14
1m
1"`
b0000 E
b0000 {
b0000 ##
#60000
0'
0(
0/
0k
0"N
0#/
0"^
0,
#70000
1'
1(
1/
1k
1"N
1#/
1"^
b00000101110100000000100110010011 +
b000001000 "Q
b000001000 j
b00000000000000000000000000001000 "2
b00000000000000000000000000001000 "@
b00000000000000000000000000001000 "B
b00000000000000000000000000001000 "&
b000001000 "G
b00000000000000000000000000001000 "q
b000001000 "=
b000001100 "?
b000001100 ""
b000001100 "F
b00000000000000000000000000001100 "m
b000001000 "R
b00000101110100000000100110010011 "S
b00000101110100000000100110010011 "%
b11101 "c
b00000101110100000000100110010011 "x
b11101 "z
b10011 "a
b000 ~
b000 D
b000 `
b0000010 }
b0000010 C
b0000010 _
b0010011 |
b0010011 .
b0010011 P
b000001100 "I
b000001100 "$
b000001100 "J
b00000000000000000000000001011101 "y
b00000000000000000000000001011101 "1
b00000000000000000000000001011101 "C
b00000000000000000000000001011101 "E
b00000000000000000000000001011101 "'
b001011101 "K
b00000000000000000000000001011101 "A
b00000000000000000000000001100101 "B
b00000000000000000000000001100101 "&
b001100101 "G
b00000000000000000000000001100101 "q
b00000000000000000000000001011101 "|
b00000000000000000000000001011101 "u
1N
1?
1c
b00 L
b00 B
b00 ^
1F
11
1p
b00000101110100000000100110010011 #)
b00000101110100000000100110010011 "T
b000001100 "M
b000001100 "#
b000001100 "P
b0010 e
1"}
b00000000000000000000000001011101 #,
b00000000000000000000000001011101 "W
b0010 E
b0010 {
b0010 ##
b00000000000000000000000001011101 "~
b00000000000000000000000001011101 "/
b00000000000000000000000001011101 #"
b00000000000000000000000001011101 #$
b00000000000000000000000001011101 "0
b00000000000000000000000001011101 #3
b00000000000000000000000001011101 "h
b00000000000000000000000001011101 "k
b00000000000000000000000001011101 "3
b00000000000000000000000001011101 "l
b00000000000000000000000001011101 "o
b00000000000000000000000001011101 "4
b00000000000000000000000001011101 "p
b00000000000000000000000001011101 "s
b00000000000000000000000001011101 "5
b00000000000000000000000001011101 "t
b00000000000000000000000001011101 "w
b00000000000000000000000001011101 "+
b00000000000000000000000001011101 "d
b00000000000000000000000001011101 "!
b00000000000000000000000001011101 0
b00000000000000000000000001011101 *
#80000
0'
0(
0/
0k
0"N
0#/
0"^
1,
#90000
1'
1(
1/
1k
1"N
1#/
1"^
b00000001110100100000011010010011 +
b000001100 "Q
b000001100 j
b00000000000000000000000000001100 "2
b00000000000000000000000000001100 "@
b00000000000000000000000001101001 "B
b00000000000000000000000001101001 "&
b001101001 "G
b00000000000000000000000001101001 "q
b000001100 "=
b000010000 "?
b000010000 ""
b000010000 "F
b00000000000000000000000000010000 "m
b000001100 "R
b00000001110100100000011010010011 "S
b00000001110100100000011010010011 "%
b00100 "b
b00000001110100100000011010010011 "x
b01101 "a
b0000000 }
b0000000 C
b0000000 _
b000010000 "I
b000010000 "$
b000010000 "J
b00000000000000000000000000011101 "y
b00000000000000000000000000011101 "1
b00000000000000000000000000011101 "C
b00000000000000000000000000011101 "E
b00000000000000000000000000011101 "'
b000011101 "K
b00000000000000000000000000011101 "A
b00000000000000000000000000101001 "B
b00000000000000000000000000101001 "&
b000101001 "G
b00000000000000000000000000101001 "q
b00000000000000000000000000011101 "|
b00000000000000000000000000011101 "u
b00000001110100100000011010010011 #)
b00000001110100100000011010010011 "T
b000010000 "M
b000010000 "#
b000010000 "P
b00000000000000000000000000011101 "~
b00000000000000000000000000011101 "/
b00000000000000000000000000011101 #"
b00000000000000000000000000011101 #,
b00000000000000000000000000011101 "W
b00000000000000000000000000011101 #$
b00000000000000000000000000011101 "0
b00000000000000000000000000011101 #3
b00000000000000000000000000011101 "h
b00000000000000000000000000011101 "k
b00000000000000000000000000011101 "3
b00000000000000000000000000011101 "l
b00000000000000000000000000011101 "o
b00000000000000000000000000011101 "4
b00000000000000000000000000011101 "p
b00000000000000000000000000011101 "s
b00000000000000000000000000011101 "5
b00000000000000000000000000011101 "t
b00000000000000000000000000011101 "w
b00000000000000000000000000011101 "+
b00000000000000000000000000011101 "d
b00000000000000000000000000011101 "!
b00000000000000000000000000011101 0
b00000000000000000000000000011101 *
#100000
0'
0(
0/
0k
0"N
0#/
0"^
0,
#110000
1'
1(
1/
1k
1"N
1#/
1"^
b00010010010001101000111110010011 +
b000010000 "Q
b000010000 j
b00000000000000000000000000010000 "2
b00000000000000000000000000010000 "@
b00000000000000000000000000101101 "B
b00000000000000000000000000101101 "&
b000101101 "G
b00000000000000000000000000101101 "q
b000010000 "=
b000010100 "?
b000010100 ""
b000010100 "F
b00000000000000000000000000010100 "m
b000010000 "R
b00010010010001101000111110010011 "S
b00010010010001101000111110010011 "%
b00100 "c
b01101 "b
b00010010010001101000111110010011 "x
b00100 "z
b11111 "a
b0001001 }
b0001001 C
b0001001 _
b000010100 "I
b000010100 "$
b000010100 "J
b00000000000000000000000000011101 "e
b00000000000000000000000000011101 ",
b00000000000000000000000000011101 #!
b00000000000000000000000000011101 "D
b00000000000000000000000000111010 "E
b00000000000000000000000000111010 "'
b000111010 "K
b00000000000000000000000100100100 "y
b00000000000000000000000100100100 "1
b00000000000000000000000100100100 "C
b00000000000000000000000101000001 "E
b00000000000000000000000101000001 "'
b101000001 "K
b00000000000000000000000100100100 "A
b00000000000000000000000100110100 "B
b00000000000000000000000100110100 "&
b100110100 "G
b00000000000000000000000100110100 "q
b00000000000000000000000100100100 "|
b00000000000000000000000100100100 "u
b00010010010001101000111110010011 #)
b00010010010001101000111110010011 "T
b000010100 "M
b000010100 "#
b000010100 "P
b00000000000000000000000000111010 #$
b00000000000000000000000000111010 "0
b00000000000000000000000000111010 #3
b00000000000000000000000000111010 "h
b00000000000000000000000100100100 "~
b00000000000000000000000100100100 "/
b00000000000000000000000100100100 #"
b00000000000000000000000100100100 #,
b00000000000000000000000100100100 "W
b00000000000000000000000000111010 "k
b00000000000000000000000000111010 "3
b00000000000000000000000000111010 "l
b00000000000000000000000101000001 #$
b00000000000000000000000101000001 "0
b00000000000000000000000101000001 #3
b00000000000000000000000101000001 "h
b00000000000000000000000000111010 "o
b00000000000000000000000000111010 "4
b00000000000000000000000000111010 "p
b00000000000000000000000101000001 "k
b00000000000000000000000101000001 "3
b00000000000000000000000101000001 "l
b00000000000000000000000000111010 "s
b00000000000000000000000000111010 "5
b00000000000000000000000000111010 "t
b00000000000000000000000101000001 "o
b00000000000000000000000101000001 "4
b00000000000000000000000101000001 "p
b00000000000000000000000000111010 "w
b00000000000000000000000000111010 "+
b00000000000000000000000000111010 "d
b00000000000000000000000000111010 "!
b00000000000000000000000000111010 0
b00000000000000000000000000111010 *
b00000000000000000000000101000001 "s
b00000000000000000000000101000001 "5
b00000000000000000000000101000001 "t
b00000000000000000000000101000001 "w
b00000000000000000000000101000001 "+
b00000000000000000000000101000001 "d
b00000000000000000000000101000001 "!
b00000000000000000000000101000001 0
b00000000000000000000000101000001 *
#120000
0'
0(
0/
0k
0"N
0#/
0"^
1,
